<?xml version="1.0" encoding="utf-8"?>
<!-- Generator: Adobe Illustrator 20.0.0, SVG Export Plug-In . SVG Version: 6.00 Build 0)  -->
<svg version="1.1" id="Layer_1" xmlns="http://www.w3.org/2000/svg" xmlns:xlink="http://www.w3.org/1999/xlink" x="0px" y="0px"
	 viewBox="0 0 191.2 191" style="enable-background:new 0 0 191.2 191;" xml:space="preserve">
<style type="text/css">
	.st0{fill:#1A1A1A;}
	.st1{fill:#FFFFFF;}
</style>
<g>
	<circle class="st0" cx="121.3" cy="95.4" r="3.4"/>
	<circle class="st0" cx="119.7" cy="104.2" r="3.4"/>
	<circle class="st0" cx="115.2" cy="112" r="3.6"/>
	<circle class="st0" cx="108.4" cy="117.7" r="3.3"/>
	<circle class="st0" cx="99.9" cy="120.8" r="3.4"/>
	<circle class="st0" cx="91" cy="120.8" r="3.4"/>
	<circle class="st0" cx="82.6" cy="117.7" r="3.3"/>
	<circle class="st0" cx="75.7" cy="112" r="3.2"/>
	<circle class="st0" cx="71.2" cy="104.2" r="3"/>
	<circle class="st0" cx="69.6" cy="95.4" r="3"/>
	<circle class="st0" cx="71.2" cy="86.6" r="2.9"/>
	<circle class="st0" cx="75.7" cy="78.8" r="3"/>
	<circle class="st0" cx="82.6" cy="73" r="3.2"/>
	<circle class="st0" cx="91" cy="70" r="3"/>
	<circle class="st0" cx="99.9" cy="70" r="3"/>
	<circle class="st0" cx="108.4" cy="73" r="3.2"/>
	<circle class="st0" cx="115.2" cy="78.8" r="3.2"/>
	<circle class="st0" cx="119.7" cy="86.6" r="3.3"/>
	<circle class="st0" cx="129.9" cy="95.4" r="3.1"/>
	<circle class="st0" cx="128.7" cy="104.3" r="3.1"/>
	<circle class="st0" cx="125.3" cy="112.6" r="3"/>
	<circle class="st0" cx="119.8" cy="119.7" r="3.1"/>
	<circle class="st0" cx="112.7" cy="125.2" r="3"/>
	<circle class="st0" cx="104.4" cy="128.6" r="3.1"/>
	<circle class="st0" cx="95.5" cy="129.8" r="3.1"/>
	<circle class="st0" cx="86.6" cy="128.6" r="3"/>
	<circle class="st0" cx="78.2" cy="125.2" r="2.8"/>
	<circle class="st0" cx="71.1" cy="119.7" r="2.8"/>
	<circle class="st0" cx="65.7" cy="112.6" r="2.9"/>
	<circle class="st0" cx="62.2" cy="104.3" r="2.7"/>
	<circle class="st0" cx="61" cy="95.4" r="2.7"/>
	<circle class="st0" cx="62.2" cy="86.5" r="2.6"/>
	<circle class="st0" cx="65.7" cy="78.2" r="2.7"/>
	<circle class="st0" cx="71.1" cy="71" r="2.5"/>
	<circle class="st0" cx="78.2" cy="65.6" r="2.7"/>
	<circle class="st0" cx="86.6" cy="62.1" r="2.6"/>
	<circle class="st0" cx="95.5" cy="61" r="2.7"/>
	<circle class="st0" cx="104.4" cy="62.1" r="2.7"/>
	<circle class="st0" cx="112.7" cy="65.6" r="2.9"/>
	<circle class="st0" cx="119.8" cy="71" r="2.8"/>
	<circle class="st0" cx="125.3" cy="78.2" r="2.8"/>
	<circle class="st0" cx="128.7" cy="86.5" r="3"/>
	<circle class="st0" cx="138.5" cy="95.4" r="2.8"/>
	<circle class="st0" cx="137.5" cy="104.3" r="2.8"/>
	<circle class="st0" cx="134.8" cy="112.9" r="2.7"/>
	<circle class="st0" cx="130.3" cy="120.7" r="2.9"/>
	<circle class="st0" cx="124.2" cy="127.4" r="2.9"/>
	<circle class="st0" cx="117" cy="132.6" r="2.9"/>
	<circle class="st0" cx="108.8" cy="136.3" r="2.7"/>
	<circle class="st0" cx="100" cy="138.2" r="2.8"/>
	<circle class="st0" cx="91" cy="138.2" r="2.8"/>
	<circle class="st0" cx="82.2" cy="136.3" r="2.7"/>
	<circle class="st0" cx="73.9" cy="132.6" r="2.8"/>
	<circle class="st0" cx="66.7" cy="127.4" r="2.6"/>
	<circle class="st0" cx="60.7" cy="120.7" r="2.5"/>
	<circle class="st0" cx="56.2" cy="112.9" r="2.6"/>
	<circle class="st0" cx="53.4" cy="104.3" r="2.4"/>
	<circle class="st0" cx="52.4" cy="95.4" r="2.4"/>
	<circle class="st0" cx="53.4" cy="86.4" r="2.3"/>
	<circle class="st0" cx="56.2" cy="77.9" r="2.5"/>
	<circle class="st0" cx="60.7" cy="70.1" r="2.3"/>
	<circle class="st0" cx="66.7" cy="63.4" r="2.3"/>
	<circle class="st0" cx="73.9" cy="58.1" r="2.5"/>
	<circle class="st0" cx="82.2" cy="54.5" r="2.3"/>
	<circle class="st0" cx="91" cy="52.6" r="2.4"/>
	<circle class="st0" cx="100" cy="52.6" r="2.4"/>
	<circle class="st0" cx="108.8" cy="54.5" r="2.3"/>
	<circle class="st0" cx="117" cy="58.1" r="2.5"/>
	<circle class="st0" cx="124.2" cy="63.4" r="2.5"/>
	<circle class="st0" cx="130.3" cy="70.1" r="2.6"/>
	<circle class="st0" cx="134.8" cy="77.9" r="2.5"/>
	<circle class="st0" cx="137.5" cy="86.4" r="2.7"/>
	<circle class="st0" cx="147.1" cy="95.4" r="2.5"/>
	<circle class="st0" cx="146.3" cy="104.3" r="2.5"/>
	<circle class="st0" cx="144" cy="113" r="2.4"/>
	<circle class="st0" cx="140.2" cy="121.2" r="2.6"/>
	<circle class="st0" cx="135" cy="128.6" r="2.4"/>
	<circle class="st0" cx="128.6" cy="134.9" r="2.4"/>
	<circle class="st0" cx="121.3" cy="140.1" r="2.6"/>
	<circle class="st0" cx="113.1" cy="143.9" r="2.4"/>
	<circle class="st0" cx="104.4" cy="146.2" r="2.5"/>
	<circle class="st0" cx="95.5" cy="147" r="2.5"/>
	<circle class="st0" cx="86.5" cy="146.2" r="2.4"/>
	<circle class="st0" cx="77.8" cy="143.9" r="2.3"/>
	<circle class="st0" cx="69.6" cy="140.1" r="2.4"/>
	<circle class="st0" cx="62.3" cy="134.9" r="2.2"/>
	<circle class="st0" cx="55.9" cy="128.6" r="2.4"/>
	<circle class="st0" cx="50.7" cy="121.2" r="2.2"/>
	<circle class="st0" cx="46.9" cy="113" r="2.1"/>
	<circle class="st0" cx="44.6" cy="104.3" r="2.1"/>
	<circle class="st0" cx="43.8" cy="95.4" r="2.1"/>
	<circle class="st0" cx="44.6" cy="86.4" r="2"/>
	<circle class="st0" cx="46.9" cy="77.7" r="2"/>
	<circle class="st0" cx="50.7" cy="69.6" r="2.1"/>
	<circle class="st0" cx="55.9" cy="62.2" r="2.1"/>
	<circle class="st0" cx="62.3" cy="55.8" r="2.1"/>
	<circle class="st0" cx="69.6" cy="50.7" r="2.1"/>
	<circle class="st0" cx="77.8" cy="46.9" r="2"/>
	<circle class="st0" cx="86.5" cy="44.5" r="2"/>
	<circle class="st0" cx="95.5" cy="43.8" r="2.1"/>
	<circle class="st0" cx="104.4" cy="44.5" r="2.1"/>
	<circle class="st0" cx="113.1" cy="46.9" r="2.1"/>
	<circle class="st0" cx="121.3" cy="50.7" r="2.2"/>
	<circle class="st0" cx="128.6" cy="55.8" r="2.4"/>
	<circle class="st0" cx="135" cy="62.2" r="2.2"/>
	<circle class="st0" cx="140.2" cy="69.6" r="2.4"/>
	<circle class="st0" cx="144" cy="77.7" r="2.3"/>
	<circle class="st0" cx="146.3" cy="86.4" r="2.4"/>
	<circle class="st0" cx="155.7" cy="95.4" r="2.1"/>
	<circle class="st0" cx="155" cy="104.4" r="2.2"/>
	<circle class="st0" cx="153" cy="113.1" r="2.1"/>
	<circle class="st0" cx="149.7" cy="121.5" r="2.3"/>
	<circle class="st0" cx="145.2" cy="129.3" r="2.2"/>
	<circle class="st0" cx="139.6" cy="136.4" r="2.2"/>
	<circle class="st0" cx="133" cy="142.5" r="2.2"/>
	<circle class="st0" cx="125.6" cy="147.5" r="2.2"/>
	<circle class="st0" cx="117.5" cy="151.5" r="2"/>
	<circle class="st0" cx="108.9" cy="154.1" r="2.1"/>
	<circle class="st0" cx="100" cy="155.4" r="2.2"/>
	<circle class="st0" cx="91" cy="155.4" r="2.1"/>
	<circle class="st0" cx="82.1" cy="154.1" r="2.1"/>
	<circle class="st0" cx="73.5" cy="151.5" r="2"/>
	<circle class="st0" cx="65.3" cy="147.5" r="2.1"/>
	<circle class="st0" cx="57.9" cy="142.5" r="2"/>
	<circle class="st0" cx="51.3" cy="136.4" r="2"/>
	<circle class="st0" cx="45.7" cy="129.3" r="1.9"/>
	<circle class="st0" cx="41.2" cy="121.5" r="2"/>
	<circle class="st0" cx="37.9" cy="113.1" r="1.8"/>
	<circle class="st0" cx="35.9" cy="104.4" r="1.8"/>
	<circle class="st0" cx="35.2" cy="95.4" r="1.8"/>
	<circle class="st0" cx="35.9" cy="86.4" r="1.8"/>
	<circle class="st0" cx="37.9" cy="77.6" r="1.7"/>
	<circle class="st0" cx="41.2" cy="69.2" r="1.8"/>
	<circle class="st0" cx="45.7" cy="61.5" r="1.7"/>
	<circle class="st0" cx="51.3" cy="54.4" r="1.7"/>
	<circle class="st0" cx="57.9" cy="48.3" r="1.9"/>
	<circle class="st0" cx="65.3" cy="43.2" r="1.8"/>
	<circle class="st0" cx="73.5" cy="39.3" r="2"/>
	<circle class="st0" cx="82.1" cy="36.7" r="1.8"/>
	<circle class="st0" cx="91" cy="35.3" r="1.8"/>
	<circle class="st0" cx="100" cy="35.3" r="1.8"/>
	<circle class="st0" cx="108.9" cy="36.7" r="1.8"/>
	<circle class="st0" cx="117.5" cy="39.3" r="2"/>
	<circle class="st0" cx="125.6" cy="43.2" r="1.9"/>
	<circle class="st0" cx="133" cy="48.3" r="2.1"/>
	<circle class="st0" cx="139.6" cy="54.4" r="2"/>
	<circle class="st0" cx="145.2" cy="61.5" r="2"/>
	<circle class="st0" cx="149.7" cy="69.2" r="2.1"/>
	<circle class="st0" cx="153" cy="77.6" r="2"/>
	<circle class="st0" cx="155" cy="86.4" r="2.1"/>
	<circle class="st0" cx="164.3" cy="95.4" r="1.9"/>
	<circle class="st0" cx="163.7" cy="104.4" r="1.9"/>
	<circle class="st0" cx="162" cy="113.2" r="1.8"/>
	<circle class="st0" cx="159.1" cy="121.7" r="1.8"/>
	<circle class="st0" cx="155.1" cy="129.8" r="1.9"/>
	<circle class="st0" cx="150.1" cy="137.3" r="2"/>
	<circle class="st0" cx="144.1" cy="144.1" r="1.8"/>
	<circle class="st0" cx="137.4" cy="150" r="2"/>
	<circle class="st0" cx="129.9" cy="155" r="1.9"/>
	<circle class="st0" cx="121.8" cy="159" r="1.8"/>
	<circle class="st0" cx="113.3" cy="161.9" r="1.8"/>
	<circle class="st0" cx="104.4" cy="163.6" r="1.9"/>
	<circle class="st0" cx="95.5" cy="164.2" r="1.9"/>
	<circle class="st0" cx="86.5" cy="163.6" r="1.8"/>
	<circle class="st0" cx="77.6" cy="161.9" r="1.7"/>
	<circle class="st0" cx="69.1" cy="159" r="1.6"/>
	<circle class="st0" cx="61" cy="155" r="1.7"/>
	<circle class="st0" cx="53.6" cy="150" r="1.8"/>
	<circle class="st0" cx="46.8" cy="144.1" r="1.6"/>
	<circle class="st0" cx="40.8" cy="137.3" r="1.7"/>
	<circle class="st0" cx="35.8" cy="129.8" r="1.6"/>
	<circle class="st0" cx="31.9" cy="121.7" r="1.7"/>
	<circle class="st0" cx="29" cy="113.2" r="1.5"/>
	<circle class="st0" cx="27.2" cy="104.4" r="1.5"/>
	<circle class="st0" cx="26.6" cy="95.4" r="1.5"/>
	<circle class="st0" cx="27.2" cy="86.4" r="1.5"/>
	<circle class="st0" cx="29" cy="77.6" r="1.4"/>
	<circle class="st0" cx="31.9" cy="69" r="1.6"/>
	<circle class="st0" cx="35.8" cy="61" r="1.5"/>
	<circle class="st0" cx="40.8" cy="53.5" r="1.5"/>
	<circle class="st0" cx="46.8" cy="46.7" r="1.3"/>
	<circle class="st0" cx="53.6" cy="40.8" r="1.5"/>
	<circle class="st0" cx="61" cy="35.8" r="1.5"/>
	<circle class="st0" cx="69.1" cy="31.8" r="1.6"/>
	<circle class="st0" cx="77.6" cy="28.9" r="1.4"/>
	<circle class="st0" cx="86.5" cy="27.1" r="1.5"/>
	<circle class="st0" cx="95.5" cy="26.5" r="1.5"/>
	<circle class="st0" cx="104.4" cy="27.1" r="1.5"/>
	<circle class="st0" cx="113.3" cy="28.9" r="1.5"/>
	<circle class="st0" cx="121.8" cy="31.8" r="1.7"/>
	<circle class="st0" cx="129.9" cy="35.8" r="1.6"/>
	<circle class="st0" cx="137.4" cy="40.8" r="1.7"/>
	<circle class="st0" cx="144.1" cy="46.7" r="1.6"/>
	<circle class="st0" cx="150.1" cy="53.5" r="1.8"/>
	<circle class="st0" cx="155.1" cy="61" r="1.7"/>
	<circle class="st0" cx="159.1" cy="69" r="1.6"/>
	<circle class="st0" cx="162" cy="77.6" r="1.7"/>
	<circle class="st0" cx="163.7" cy="86.4" r="1.8"/>
	<circle class="st0" cx="172.9" cy="95.4" r="1.6"/>
	<circle class="st0" cx="172.4" cy="104.4" r="1.6"/>
	<circle class="st0" cx="170.8" cy="113.2" r="1.6"/>
	<circle class="st0" cx="168.2" cy="121.9" r="1.5"/>
	<circle class="st0" cx="164.7" cy="130.1" r="1.7"/>
	<circle class="st0" cx="160.2" cy="137.9" r="1.5"/>
	<circle class="st0" cx="154.8" cy="145.2" r="1.6"/>
	<circle class="st0" cx="148.6" cy="151.7" r="1.6"/>
	<circle class="st0" cx="141.7" cy="157.5" r="1.8"/>
	<circle class="st0" cx="134.2" cy="162.5" r="1.5"/>
	<circle class="st0" cx="126.1" cy="166.5" r="1.7"/>
	<circle class="st0" cx="117.7" cy="169.6" r="1.5"/>
	<circle class="st0" cx="108.9" cy="171.7" r="1.6"/>
	<circle class="st0" cx="100" cy="172.7" r="1.6"/>
	<circle class="st0" cx="91" cy="172.7" r="1.6"/>
	<circle class="st0" cx="82" cy="171.7" r="1.6"/>
	<circle class="st0" cx="73.2" cy="169.6" r="1.5"/>
	<circle class="st0" cx="64.8" cy="166.5" r="1.6"/>
	<circle class="st0" cx="56.7" cy="162.5" r="1.5"/>
	<circle class="st0" cx="49.2" cy="157.5" r="1.6"/>
	<circle class="st0" cx="42.3" cy="151.7" r="1.4"/>
	<circle class="st0" cx="36.1" cy="145.2" r="1.4"/>
	<circle class="st0" cx="30.8" cy="137.9" r="1.5"/>
	<circle class="st0" cx="26.3" cy="130.1" r="1.4"/>
	<circle class="st0" cx="22.7" cy="121.9" r="1.5"/>
	<circle class="st0" cx="20.1" cy="113.2" r="1.3"/>
	<circle class="st0" cx="18.5" cy="104.4" r="1.3"/>
	<circle class="st0" cx="18" cy="95.4" r="1.3"/>
	<circle class="st0" cx="18.5" cy="86.4" r="1.3"/>
	<circle class="st0" cx="20.1" cy="77.5" r="1.2"/>
	<circle class="st0" cx="22.7" cy="68.9" r="1.3"/>
	<circle class="st0" cx="26.3" cy="60.6" r="1.2"/>
	<circle class="st0" cx="30.8" cy="52.8" r="1.3"/>
	<circle class="st0" cx="36.1" cy="45.6" r="1.2"/>
	<circle class="st0" cx="42.3" cy="39.1" r="1.3"/>
	<circle class="st0" cx="49.2" cy="33.3" r="1.3"/>
	<circle class="st0" cx="56.7" cy="28.3" r="1.2"/>
	<circle class="st0" cx="64.8" cy="24.3" r="1.3"/>
	<circle class="st0" cx="73.2" cy="21.2" r="1.2"/>
	<circle class="st0" cx="82" cy="19.1" r="1.3"/>
	<circle class="st0" cx="91" cy="18.1" r="1.3"/>
	<circle class="st0" cx="100" cy="18.1" r="1.3"/>
	<circle class="st0" cx="108.9" cy="19.1" r="1.3"/>
	<circle class="st0" cx="117.7" cy="21.2" r="1.2"/>
	<circle class="st0" cx="126.1" cy="24.3" r="1.4"/>
	<circle class="st0" cx="134.2" cy="28.3" r="1.3"/>
	<circle class="st0" cx="141.7" cy="33.3" r="1.5"/>
	<circle class="st0" cx="148.6" cy="39.1" r="1.6"/>
	<circle class="st0" cx="154.8" cy="45.6" r="1.4"/>
	<circle class="st0" cx="160.2" cy="52.8" r="1.4"/>
	<circle class="st0" cx="164.7" cy="60.6" r="1.5"/>
	<circle class="st0" cx="168.2" cy="68.9" r="1.4"/>
	<circle class="st0" cx="170.8" cy="77.5" r="1.5"/>
	<circle class="st0" cx="172.4" cy="86.4" r="1.6"/>
	<circle class="st0" cx="181.5" cy="95.4" r="1.3"/>
	<circle class="st0" cx="181" cy="104.4" r="1.3"/>
	<circle class="st0" cx="179.6" cy="113.3" r="1.3"/>
	<circle class="st0" cx="177.3" cy="122" r="1.3"/>
	<circle class="st0" cx="174.1" cy="130.4" r="1.4"/>
	<circle class="st0" cx="170" cy="138.4" r="1.3"/>
	<circle class="st0" cx="165.1" cy="146" r="1.4"/>
	<circle class="st0" cx="159.4" cy="153" r="1.3"/>
	<circle class="st0" cx="153" cy="159.3" r="1.3"/>
	<circle class="st0" cx="146" cy="165" r="1.4"/>
	<circle class="st0" cx="138.5" cy="169.9" r="1.3"/>
	<circle class="st0" cx="130.5" cy="174" r="1.4"/>
	<circle class="st0" cx="122.1" cy="177.2" r="1.3"/>
	<circle class="st0" cx="113.4" cy="179.6" r="1.3"/>
	<circle class="st0" cx="104.5" cy="181" r="1.3"/>
	<circle class="st0" cx="95.5" cy="181.4" r="1.3"/>
	<circle class="st0" cx="86.5" cy="181" r="1.3"/>
	<circle class="st0" cx="77.6" cy="179.6" r="1.3"/>
	<circle class="st0" cx="68.9" cy="177.2" r="1.2"/>
	<circle class="st0" cx="60.5" cy="174" r="1.3"/>
	<circle class="st0" cx="52.4" cy="169.9" r="1.2"/>
	<circle class="st0" cx="44.9" cy="165" r="1.2"/>
	<circle class="st0" cx="37.9" cy="159.3" r="1"/>
	<circle class="st0" cx="31.5" cy="153" r="1.2"/>
	<circle class="st0" cx="25.8" cy="146" r="1.1"/>
	<circle class="st0" cx="20.9" cy="138.4" r="1"/>
	<circle class="st0" cx="16.8" cy="130.4" r="1.1"/>
	<circle class="st0" cx="13.6" cy="122" r="1.2"/>
	<circle class="st0" cx="11.3" cy="113.3" r="1"/>
	<circle class="st0" cx="9.9" cy="104.4" r="1"/>
	<circle class="st0" cx="9.4" cy="95.4" r="1"/>
	<circle class="st0" cx="9.9" cy="86.4" r="1"/>
	<circle class="st0" cx="11.3" cy="77.5" r="1"/>
	<circle class="st0" cx="13.6" cy="68.8" r="1.1"/>
	<circle class="st0" cx="16.8" cy="60.4" r="1"/>
	<circle class="st0" cx="20.9" cy="52.4" r="0.9"/>
	<circle class="st0" cx="25.8" cy="44.8" r="1"/>
	<circle class="st0" cx="31.5" cy="37.8" r="1"/>
	<circle class="st0" cx="37.9" cy="31.4" r="1"/>
	<circle class="st0" cx="44.9" cy="25.8" r="1"/>
	<circle class="st0" cx="52.4" cy="20.9" r="0.9"/>
	<circle class="st0" cx="60.5" cy="16.8" r="1"/>
	<circle class="st0" cx="68.9" cy="13.5" r="1.1"/>
	<circle class="st0" cx="77.6" cy="11.2" r="1"/>
	<circle class="st0" cx="86.5" cy="9.8" r="1"/>
	<circle class="st0" cx="95.5" cy="9.3" r="1"/>
	<circle class="st0" cx="104.5" cy="9.8" r="1"/>
	<circle class="st0" cx="113.4" cy="11.2" r="1"/>
	<circle class="st0" cx="122.1" cy="13.5" r="1.2"/>
	<circle class="st0" cx="130.5" cy="16.8" r="1.1"/>
	<circle class="st0" cx="138.5" cy="20.9" r="1"/>
	<circle class="st0" cx="146" cy="25.8" r="1.1"/>
	<circle class="st0" cx="153" cy="31.4" r="1.2"/>
	<circle class="st0" cx="159.4" cy="37.8" r="1"/>
	<circle class="st0" cx="165.1" cy="44.8" r="1.2"/>
	<circle class="st0" cx="170" cy="52.4" r="1.2"/>
	<circle class="st0" cx="174.1" cy="60.4" r="1.3"/>
	<circle class="st0" cx="177.3" cy="68.8" r="1.2"/>
	<circle class="st0" cx="179.6" cy="77.5" r="1.3"/>
	<circle class="st0" cx="181" cy="86.4" r="1.3"/>
	<circle class="st0" cx="190.1" cy="95.4" r="1.1"/>
	<circle class="st0" cx="189.7" cy="104.4" r="1.1"/>
	<circle class="st0" cx="188.4" cy="113.3" r="1.1"/>
	<circle class="st0" cx="186.3" cy="122" r="1"/>
	<circle class="st0" cx="183.3" cy="130.6" r="1.2"/>
	<circle class="st0" cx="179.6" cy="138.8" r="1.1"/>
	<circle class="st0" cx="175.1" cy="146.6" r="1.2"/>
	<circle class="st0" cx="169.9" cy="153.9" r="1.1"/>
	<circle class="st0" cx="164" cy="160.7" r="1.1"/>
	<circle class="st0" cx="157.4" cy="166.9" r="1.3"/>
	<circle class="st0" cx="150.4" cy="172.5" r="1.1"/>
	<circle class="st0" cx="142.8" cy="177.4" r="1"/>
	<circle class="st0" cx="134.8" cy="181.5" r="1.1"/>
	<circle class="st0" cx="126.4" cy="184.8" r="1"/>
	<circle class="st0" cx="117.8" cy="187.4" r="1"/>
	<circle class="st0" cx="108.9" cy="189.1" r="1.1"/>
	<circle class="st0" cx="100" cy="189.9" r="1.1"/>
	<circle class="st0" cx="91" cy="189.9" r="1.1"/>
	<circle class="st0" cx="82" cy="189.1" r="1.1"/>
	<circle class="st0" cx="73.1" cy="187.4" r="1"/>
	<circle class="st0" cx="64.5" cy="184.8" r="1"/>
	<circle class="st0" cx="56.1" cy="181.5" r="1.1"/>
	<circle class="st0" cx="48.1" cy="177.4" r="1"/>
	<circle class="st0" cx="40.6" cy="172.5" r="1"/>
	<circle class="st0" cx="33.5" cy="166.9" r="1"/>
	<circle class="st0" cx="27" cy="160.7" r="0.9"/>
	<circle class="st0" cx="21.1" cy="153.9" r="0.8"/>
	<circle class="st0" cx="15.8" cy="146.6" r="1"/>
	<circle class="st0" cx="11.3" cy="138.8" r="0.8"/>
	<circle class="st0" cx="7.6" cy="130.6" r="0.9"/>
	<circle class="st0" cx="4.6" cy="122.1" r="1"/>
	<circle class="st0" cx="2.5" cy="113.3" r="0.8"/>
	<circle class="st0" cx="1.2" cy="104.4" r="0.8"/>
	<circle class="st0" cx="0.8" cy="95.4" r="0.8"/>
	<circle class="st0" cx="1.2" cy="86.4" r="0.8"/>
	<circle class="st0" cx="2.5" cy="77.5" r="0.8"/>
	<circle class="st0" cx="4.6" cy="68.7" r="0.9"/>
	<circle class="st0" cx="7.6" cy="60.2" r="0.8"/>
	<circle class="st0" cx="11.3" cy="52" r="0.7"/>
	<circle class="st0" cx="15.8" cy="44.2" r="0.8"/>
	<circle class="st0" cx="21.1" cy="36.9" r="0.7"/>
	<circle class="st0" cx="27" cy="30.1" r="0.8"/>
	<circle class="st0" cx="33.5" cy="23.8" r="0.8"/>
	<circle class="st0" cx="40.6" cy="18.3" r="0.8"/>
	<circle class="st0" cx="48.1" cy="13.4" r="0.9"/>
	<circle class="st0" cx="56.1" cy="9.3" r="0.8"/>
	<circle class="st0" cx="64.5" cy="5.9" r="0.9"/>
	<circle class="st0" cx="73.1" cy="3.4" r="0.8"/>
	<circle class="st0" cx="82" cy="1.7" r="0.8"/>
	<circle class="st0" cx="91" cy="0.8" r="0.8"/>
	<circle class="st0" cx="100" cy="0.8" r="0.8"/>
	<circle class="st0" cx="108.9" cy="1.7" r="0.8"/>
	<circle class="st0" cx="117.8" cy="3.4" r="0.8"/>
	<circle class="st0" cx="126.4" cy="5.9" r="0.9"/>
	<circle class="st0" cx="134.8" cy="9.3" r="0.8"/>
	<circle class="st0" cx="142.8" cy="13.4" r="1"/>
	<circle class="st0" cx="150.4" cy="18.3" r="0.8"/>
	<circle class="st0" cx="157.4" cy="23.8" r="1"/>
	<circle class="st0" cx="164" cy="30.1" r="1"/>
	<circle class="st0" cx="169.9" cy="36.9" r="0.9"/>
	<circle class="st0" cx="175.1" cy="44.2" r="1"/>
	<circle class="st0" cx="179.6" cy="52" r="1"/>
	<circle class="st0" cx="183.3" cy="60.2" r="1.1"/>
	<circle class="st0" cx="186.3" cy="68.7" r="1"/>
	<circle class="st0" cx="188.4" cy="77.5" r="1"/>
	<circle class="st0" cx="189.7" cy="86.4" r="1.1"/>
</g>
<path class="st1" d="M104.9,95.5c-0.2,0.5-0.3,1.1-0.3,1.7c0,0.4,0.1,0.8,0.3,1c0.2,0.2,0.5,0.4,0.8,0.4c1.4,0,2.6-1.3,3.7-3.8
	c0.1-0.2,0.2-0.3,0.4-0.3c0.1,0,0.1,0.1,0.1,0.1c0,0.1-0.2,0.5-0.5,1.2c-0.3,0.7-0.7,1.3-1,1.8c-0.8,1-1.7,1.6-2.8,1.6
	c-0.6,0-1.1-0.2-1.5-0.6c-0.4-0.4-0.6-0.9-0.6-1.6c0-0.7,0.2-1.4,0.5-2.1c0.3-0.8,0.8-1.5,1.3-2.1c0.6-0.6,1.2-1.1,1.9-1.4
	c0.3-0.1,0.7-0.2,1-0.2c0.3,0,0.6,0.1,0.9,0.3c0.3,0.2,0.4,0.4,0.4,0.7c0,0.9-0.5,1.8-1.6,2.6c-0.3,0.3-0.8,0.5-1.4,0.7
	C105.7,95.4,105.2,95.5,104.9,95.5z M108.6,91.9c0-0.3-0.1-0.4-0.4-0.4c-0.4,0-1.1,0.5-1.9,1.5c-0.5,0.6-1,1.3-1.3,2.1
	c0.3,0,0.6-0.1,1.1-0.3c0.5-0.2,0.9-0.4,1.3-0.7C108.2,93.4,108.6,92.7,108.6,91.9z"/>
<path class="st1" d="M85.8,108.4l-1.2-5.6h0.8l0.6,3l0.2,1.4l0.2-1.4l0.6-3h0.8l-1.2,5.6H85.8z"/>
<path class="st1" d="M91.4,108.4v-5.6h2.2v0.6h-1.4v1.8h1v0.6h-1v2h1.4v0.6H91.4z"/>
<path class="st1" d="M98.7,108.4c-0.2,0-0.4,0-0.6-0.1c-0.2-0.1-0.3-0.2-0.4-0.3c-0.1-0.1-0.2-0.3-0.3-0.4c-0.1-0.2-0.1-0.4-0.2-0.6
	c0-0.2,0-0.4,0-0.7v-1.6c0-0.3,0-0.5,0-0.7c0-0.2,0.1-0.4,0.2-0.6c0.1-0.2,0.2-0.3,0.3-0.4c0.1-0.1,0.3-0.2,0.4-0.3
	c0.2-0.1,0.4-0.1,0.6-0.1c0.3,0,0.5,0,0.7,0.1c0.2,0.1,0.3,0.2,0.5,0.3c0.1,0.2,0.2,0.3,0.3,0.5c0.1,0.2,0.1,0.4,0.1,0.7
	c0,0,0,0.1,0,0.2h-0.8v-0.2c0-0.1,0-0.2,0-0.3c0-0.1,0-0.2,0-0.2c0-0.1,0-0.2-0.1-0.2c0-0.1-0.1-0.1-0.1-0.2c0,0-0.1-0.1-0.2-0.1
	c-0.1,0-0.2,0-0.3,0c-0.1,0-0.2,0-0.3,0.1c-0.1,0-0.2,0.1-0.2,0.2c-0.1,0.1-0.1,0.2-0.1,0.3c0,0.1,0,0.2-0.1,0.3c0,0.1,0,0.2,0,0.4
	v2c0,0.1,0,0.3,0,0.4c0,0.1,0,0.2,0.1,0.3c0,0.1,0.1,0.2,0.1,0.3c0.1,0.1,0.1,0.1,0.2,0.2c0.1,0,0.2,0.1,0.3,0.1
	c0.1,0,0.2,0,0.3-0.1c0.1,0,0.2-0.1,0.2-0.2c0-0.1,0.1-0.2,0.1-0.3c0-0.1,0-0.2,0.1-0.3c0-0.1,0-0.2,0-0.4v-0.2h0.8v0.2
	c0,0.3,0,0.5-0.1,0.8c-0.1,0.2-0.1,0.4-0.2,0.6c-0.1,0.2-0.3,0.3-0.5,0.4C99.2,108.4,99,108.4,98.7,108.4z"/>
<path class="st1" d="M104.5,108.4v-4.9h-1v-0.7h2.8v0.7h-1v4.9H104.5z"/>
</svg>
