<?xml version="1.0" encoding="utf-8"?>
<!-- Generator: Adobe Illustrator 20.0.0, SVG Export Plug-In . SVG Version: 6.00 Build 0)  -->
<svg version="1.1" id="Capa_1" xmlns="http://www.w3.org/2000/svg" xmlns:xlink="http://www.w3.org/1999/xlink" x="0px" y="0px"
	 viewBox="0 0 257.6 451.8" style="enable-background:new 0 0 257.6 451.8;" xml:space="preserve">
<g>
	<path d="M248.3,248.3L54,442.6c-12.4,12.4-32.4,12.4-44.8,0c-12.4-12.4-12.4-32.4,0-44.7l171.9-171.9L9.3,54
		C-3.1,41.7-3.1,21.6,9.3,9.3C21.6-3.1,41.7-3.1,54,9.3l194.3,194.3c6.2,6.2,9.3,14.3,9.3,22.4C257.6,234,254.5,242.1,248.3,248.3z"
		/>
</g>
</svg>
